{
    "obstacle": [
        {
            "type": 0,
            "x": -0.10,
            "y": 0.05,
            "z": 0.0
        },
        {
            "type": 0,
            "x": -0.10,
            "y": 0.05,
            "z": 0.0
        },
        {
            "type": 0,
            "x": -0.10,
            "y": 0.05,
            "z": 0.0
        },
        {
            "type": 0,
            "x": -0.10,
            "y": 0.05,
            "z": 0.0
        }
    ]
}